reports/Lab_3/data/Task4_4V.csv

X,CH1,CH2,Start,Increment,
Sequence,Volt,Volt,-3.720000e-05,2.000000e-09
0,-1.40e-02,1.56e+01,
1,-1.40e-02,1.56e+01,
2,-1.40e-02,1.56e+01,
3,-1.40e-02,1.56e+01,
4,-1.40e-02,1.56e+01,
5,-1.40e-02,1.56e+01,
6,-1.40e-02,1.48e+01,
7,-1.40e-02,1.48e+01,
8,-1.40e-02,1.48e+01,
9,-1.80e-02,1.48e+01,
10,-3.20e-02,1.48e+01,
11,-4.20e-02,1.48e+01,
12,-5.40e-02,1.40e+01,
13,-6.20e-02,1.40e+01,
14,-7.40e-02,1.40e+01,
15,-8.20e-02,1.40e+01,
16,-9.00e-02,1.40e+01,
17,-9.80e-02,1.40e+01,
18,-1.08e-01,1.32e+01,
19,-1.16e-01,1.32e+01,
20,-1.22e-01,1.32e+01,
21,-1.30e-01,1.32e+01,
22,-1.34e-01,1.32e+01,
23,-1.42e-01,1.32e+01,
24,-1.48e-01,1.24e+01,
25,-1.54e-01,1.24e+01,
26,-1.62e-01,1.24e+01,
27,-1.64e-01,1.24e+01,
28,-1.68e-01,1.24e+01,
29,3.38e-01,1.24e+01,
30,3.32e-01,1.24e+01,
31,3.28e-01,1.24e+01,
32,3.24e-01,1.16e+01,
33,3.20e-01,1.16e+01,
34,3.14e-01,1.16e+01,
35,3.12e-01,1.16e+01,
36,3.08e-01,1.16e+01,
37,3.06e-01,1.16e+01,
38,3.00e-01,1.00e+01,
39,2.98e-01,1.00e+01,
40,2.96e-01,1.00e+01,
41,2.94e-01,1.00e+01,
42,2.90e-01,1.00e+01,
43,2.88e-01,1.00e+01,
44,2.86e-01,1.00e+01,
45,2.82e-01,1.00e+01,
46,2.80e-01,9.20e+00,
47,2.80e-01,9.20e+00,
48,2.78e-01,9.20e+00,
49,2.74e-01,9.20e+00,
50,2.72e-01,9.20e+00,
51,2.72e-01,9.20e+00,
52,2.70e-01,9.20e+00,
53,2.70e-01,8.40e+00,
54,2.66e-01,8.40e+00,
55,2.64e-01,8.40e+00,
56,2.62e-01,8.40e+00,
57,2.62e-01,8.40e+00,
58,2.58e-01,8.40e+00,
59,2.56e-01,8.40e+00,
60,2.56e-01,8.40e+00,
61,2.56e-01,8.40e+00,
62,2.54e-01,7.60e+00,
63,2.50e-01,7.60e+00,
64,2.50e-01,7.60e+00,
65,2.48e-01,7.60e+00,
66,2.46e-01,7.60e+00,
67,2.46e-01,7.60e+00,
68,2.42e-01,7.60e+00,
69,2.42e-01,7.60e+00,
70,2.40e-01,7.60e+00,
71,2.40e-01,7.60e+00,
72,2.38e-01,6.80e+00,
73,2.38e-01,6.80e+00,
74,2.36e-01,6.80e+00,
75,2.36e-01,6.80e+00,
76,2.32e-01,6.80e+00,
77,2.32e-01,6.80e+00,
78,2.30e-01,6.80e+00,
79,2.30e-01,6.80e+00,
80,2.28e-01,6.80e+00,
81,2.28e-01,6.00e+00,
82,2.24e-01,6.00e+00,
83,2.24e-01,6.00e+00,
84,2.22e-01,6.00e+00,
85,2.22e-01,6.00e+00,
86,2.20e-01,6.00e+00,
87,2.20e-01,6.00e+00,
88,2.20e-01,6.00e+00,
89,2.16e-01,6.00e+00,
90,2.16e-01,6.00e+00,
91,2.14e-01,6.00e+00,
92,2.14e-01,6.00e+00,
93,2.12e-01,6.00e+00,
94,2.12e-01,6.00e+00,
95,2.12e-01,6.00e+00,
96,2.08e-01,5.20e+00,
97,2.08e-01,5.20e+00,
98,2.06e-01,5.20e+00,
99,2.06e-01,5.20e+00,
100,2.06e-01,5.20e+00,
101,2.06e-01,5.20e+00,
102,2.04e-01,5.20e+00,
103,2.04e-01,5.20e+00,
104,2.04e-01,5.20e+00,
105,2.04e-01,5.20e+00,
106,2.04e-01,5.20e+00,
107,2.04e-01,5.20e+00,
108,2.04e-01,5.20e+00,
109,2.04e-01,5.20e+00,
110,2.04e-01,5.20e+00,
111,2.04e-01,5.20e+00,
112,2.04e-01,5.20e+00,
113,2.04e-01,5.20e+00,
114,2.04e-01,5.20e+00,
115,2.04e-01,5.20e+00,
116,2.04e-01,5.20e+00,
117,2.04e-01,5.20e+00,
118,2.04e-01,5.20e+00,
119,2.04e-01,5.20e+00,
120,2.04e-01,5.20e+00,
121,2.04e-01,5.20e+00,
122,2.04e-01,5.20e+00,
123,2.04e-01,5.20e+00,
124,2.04e-01,5.20e+00,
125,2.06e-01,5.20e+00,
126,2.04e-01,5.20e+00,
127,2.06e-01,5.20e+00,
128,2.06e-01,5.20e+00,
129,2.06e-01,5.20e+00,
130,2.06e-01,5.20e+00,
131,2.06e-01,5.20e+00,
132,2.06e-01,5.20e+00,
133,2.06e-01,5.20e+00,
134,2.06e-01,5.20e+00,
135,2.06e-01,5.20e+00,
136,2.06e-01,5.20e+00,
137,2.06e-01,5.20e+00,
138,2.06e-01,5.20e+00,
139,2.06e-01,5.20e+00,
140,2.06e-01,5.20e+00,
141,2.06e-01,5.20e+00,
142,2.06e-01,5.20e+00,
143,2.06e-01,5.20e+00,
144,2.06e-01,5.20e+00,
145,2.06e-01,5.20e+00,
146,2.06e-01,5.20e+00,
147,2.06e-01,5.20e+00,
148,2.06e-01,5.20e+00,
149,2.06e-01,5.20e+00,
150,2.06e-01,5.20e+00,
151,2.06e-01,5.20e+00,
152,2.06e-01,5.20e+00,
153,2.06e-01,5.20e+00,
154,2.06e-01,5.20e+00,
155,2.06e-01,5.20e+00,
156,2.06e-01,5.20e+00,
157,2.06e-01,5.20e+00,
158,2.06e-01,5.20e+00,
159,2.06e-01,5.20e+00,
160,2.04e-01,5.20e+00,
161,2.04e-01,5.20e+00,
162,2.04e-01,5.20e+00,
163,2.04e-01,5.20e+00,
164,2.00e-01,4.40e+00,
165,1.98e-01,4.40e+00,
166,1.96e-01,4.40e+00,
167,1.82e-01,3.60e+00,
168,1.72e-01,2.80e+00,
169,1.64e-01,2.80e+00,
170,1.62e-01,2.80e+00,
171,1.58e-01,2.80e+00,
172,1.58e-01,2.80e+00,
173,1.64e-01,2.80e+00,
174,1.70e-01,3.60e+00,
175,1.74e-01,3.60e+00,
176,1.80e-01,3.60e+00,
177,1.88e-01,4.40e+00,
178,1.92e-01,4.40e+00,
179,1.96e-01,4.40e+00,
180,1.96e-01,4.40e+00,
181,1.96e-01,4.40e+00,
182,1.90e-01,4.40e+00,
183,1.86e-01,3.60e+00,
184,1.78e-01,2.80e+00,
185,1.70e-01,2.80e+00,
186,1.62e-01,2.00e+00,
187,1.56e-01,2.00e+00,
188,1.54e-01,2.00e+00,
189,1.54e-01,2.00e+00,
190,1.58e-01,2.80e+00,
191,1.64e-01,2.80e+00,
192,1.70e-01,2.80e+00,
193,1.74e-01,3.60e+00,
194,1.78e-01,3.60e+00,
195,1.78e-01,3.60e+00,
196,1.74e-01,2.80e+00,
197,1.72e-01,2.80e+00,
198,1.66e-01,2.80e+00,
199,1.58e-01,2.00e+00,
200,1.50e-01,2.00e+00,
201,1.46e-01,1.20e+00,
202,1.42e-01,1.20e+00,
203,1.42e-01,1.20e+00,
204,1.46e-01,1.20e+00,
205,1.48e-01,2.00e+00,
206,1.54e-01,2.00e+00,
207,1.58e-01,2.00e+00,
208,1.62e-01,2.80e+00,
209,1.64e-01,2.80e+00,
210,1.62e-01,2.80e+00,
211,1.62e-01,2.80e+00,
212,1.56e-01,2.00e+00,
213,1.50e-01,2.00e+00,
214,1.46e-01,1.20e+00,
215,1.42e-01,1.20e+00,
216,1.38e-01,1.20e+00,
217,1.36e-01,1.20e+00,
218,1.38e-01,1.20e+00,
219,1.40e-01,1.20e+00,
220,1.42e-01,1.20e+00,
221,1.48e-01,1.20e+00,
222,1.50e-01,2.00e+00,
223,1.54e-01,2.00e+00,
224,1.54e-01,2.00e+00,
225,1.54e-01,2.00e+00,
226,1.50e-01,1.20e+00,
227,1.46e-01,1.20e+00,
228,1.42e-01,1.20e+00,
229,1.38e-01,1.20e+00,
230,1.36e-01,4.00e-01,
231,1.32e-01,4.00e-01,
232,1.32e-01,4.00e-01,
233,1.32e-01,4.00e-01,
234,1.36e-01,1.20e+00,
235,1.38e-01,1.20e+00,
236,1.42e-01,1.20e+00,
237,1.46e-01,1.20e+00,
238,1.46e-01,1.20e+00,
239,1.46e-01,1.20e+00,
240,1.46e-01,1.20e+00,
241,1.42e-01,1.20e+00,
242,1.40e-01,1.20e+00,
243,1.36e-01,4.00e-01,
244,1.32e-01,4.00e-01,
245,1.30e-01,4.00e-01,
246,1.30e-01,4.00e-01,
247,1.30e-01,4.00e-01,
248,1.30e-01,4.00e-01,
249,1.32e-01,4.00e-01,
250,1.36e-01,4.00e-01,
251,1.38e-01,1.20e+00,
252,1.40e-01,1.20e+00,
253,1.40e-01,1.20e+00,
254,1.40e-01,1.20e+00,
255,1.40e-01,1.20e+00,
256,1.38e-01,4.00e-01,
257,1.36e-01,4.00e-01,
258,1.32e-01,4.00e-01,
259,1.30e-01,4.00e-01,
260,1.28e-01,4.00e-01,
261,1.28e-01,4.00e-01,
262,1.28e-01,4.00e-01,
263,1.30e-01,4.00e-01,
264,1.30e-01,4.00e-01,
265,1.32e-01,4.00e-01,
266,1.36e-01,4.00e-01,
267,1.36e-01,4.00e-01,
268,1.38e-01,4.00e-01,
269,1.36e-01,4.00e-01,
270,1.36e-01,4.00e-01,
271,1.32e-01,4.00e-01,
272,1.30e-01,4.00e-01,
273,1.28e-01,4.00e-01,
274,1.28e-01,4.00e-01,
275,1.24e-01,-4.00e-01,
276,1.24e-01,-4.00e-01,
277,1.24e-01,4.00e-01,
278,1.28e-01,4.00e-01,
279,1.30e-01,4.00e-01,
280,1.30e-01,4.00e-01,
281,1.32e-01,4.00e-01,
282,1.32e-01,4.00e-01,
283,1.32e-01,4.00e-01,
284,1.32e-01,4.00e-01,
285,1.30e-01,4.00e-01,
286,1.30e-01,4.00e-01,
287,1.28e-01,4.00e-01,
288,1.24e-01,-4.00e-01,
289,1.24e-01,-4.00e-01,
290,1.24e-01,-4.00e-01,
291,1.24e-01,-4.00e-01,
292,1.24e-01,-4.00e-01,
293,1.28e-01,4.00e-01,
294,1.28e-01,4.00e-01,
295,1.30e-01,4.00e-01,
296,1.30e-01,4.00e-01,
297,1.30e-01,4.00e-01,
298,1.30e-01,4.00e-01,
299,1.30e-01,4.00e-01,
300,1.28e-01,4.00e-01,
301,1.28e-01,4.00e-01,
302,1.24e-01,-4.00e-01,
303,1.24e-01,-4.00e-01,
304,1.22e-01,-4.00e-01,
305,1.22e-01,-4.00e-01,
306,1.24e-01,-4.00e-01,
307,1.24e-01,-4.00e-01,
308,1.24e-01,-4.00e-01,
309,1.28e-01,4.00e-01,
310,1.28e-01,4.00e-01,
311,1.30e-01,4.00e-01,
312,1.30e-01,4.00e-01,
313,1.30e-01,4.00e-01,
314,1.28e-01,4.00e-01,
315,1.28e-01,4.00e-01,
316,1.24e-01,-4.00e-01,
317,1.24e-01,-4.00e-01,
318,1.22e-01,-4.00e-01,
319,1.22e-01,-4.00e-01,
320,1.22e-01,-4.00e-01,
321,1.22e-01,-4.00e-01,
322,1.24e-01,-4.00e-01,
323,1.24e-01,4.00e-01,
324,1.28e-01,-4.00e-01,
325,1.28e-01,4.00e-01,
326,1.28e-01,4.00e-01,
327,1.28e-01,4.00e-01,
328,1.28e-01,4.00e-01,
329,1.28e-01,-4.00e-01,
330,1.24e-01,-4.00e-01,
331,1.24e-01,-4.00e-01,
332,1.22e-01,-4.00e-01,
333,1.22e-01,-4.00e-01,
334,1.22e-01,-4.00e-01,
335,1.22e-01,-4.00e-01,
336,1.22e-01,-4.00e-01,
337,1.24e-01,-4.00e-01,
338,1.24e-01,-4.00e-01,
339,1.28e-01,4.00e-01,
340,1.28e-01,-4.00e-01,
341,1.28e-01,4.00e-01,
342,1.28e-01,4.00e-01,
343,1.24e-01,-4.00e-01,
344,1.24e-01,-4.00e-01,
345,1.24e-01,-4.00e-01,
346,1.24e-01,-4.00e-01,
347,1.22e-01,-4.00e-01,
348,1.22e-01,-4.00e-01,
349,1.22e-01,-4.00e-01,
350,1.22e-01,-4.00e-01,
351,1.22e-01,-4.00e-01,
352,1.24e-01,-4.00e-01,
353,1.24e-01,-4.00e-01,
354,1.24e-01,-4.00e-01,
355,1.24e-01,4.00e-01,
356,1.24e-01,4.00e-01,
357,1.24e-01,-4.00e-01,
358,1.24e-01,-4.00e-01,
359,1.24e-01,-4.00e-01,
360,1.22e-01,-4.00e-01,
361,1.22e-01,-4.00e-01,
362,1.22e-01,-4.00e-01,
363,1.22e-01,-4.00e-01,
364,1.22e-01,-4.00e-01,
365,1.22e-01,-4.00e-01,
366,1.22e-01,-4.00e-01,
367,1.24e-01,-4.00e-01,
368,1.24e-01,-4.00e-01,
369,1.24e-01,-4.00e-01,
370,1.24e-01,-4.00e-01,
371,1.24e-01,-4.00e-01,
372,1.24e-01,-4.00e-01,
373,1.24e-01,-4.00e-01,
374,1.24e-01,-4.00e-01,
375,1.22e-01,-4.00e-01,
376,1.22e-01,-4.00e-01,
377,1.22e-01,-4.00e-01,
378,1.22e-01,-4.00e-01,
379,1.22e-01,-4.00e-01,
380,1.22e-01,-4.00e-01,
381,1.22e-01,-4.00e-01,
382,1.24e-01,-4.00e-01,
383,1.24e-01,-4.00e-01,
384,1.24e-01,-4.00e-01,
385,1.24e-01,-4.00e-01,
386,1.24e-01,-4.00e-01,
387,1.24e-01,-4.00e-01,
388,1.22e-01,-4.00e-01,
389,1.22e-01,-4.00e-01,
390,1.22e-01,-4.00e-01,
391,1.22e-01,-4.00e-01,
392,1.22e-01,-4.00e-01,
393,1.22e-01,-4.00e-01,
394,1.22e-01,-4.00e-01,
395,1.22e-01,-4.00e-01,
396,1.22e-01,-4.00e-01,
397,1.24e-01,-4.00e-01,
398,1.24e-01,-4.00e-01,
399,1.24e-01,-4.00e-01,
400,1.24e-01,-4.00e-01,
401,1.24e-01,-4.00e-01,
402,1.24e-01,-4.00e-01,
403,1.22e-01,-4.00e-01,
404,1.22e-01,-4.00e-01,
405,1.22e-01,-4.00e-01,
406,1.22e-01,-4.00e-01,
407,1.22e-01,-4.00e-01,
408,1.22e-01,-4.00e-01,
409,1.22e-01,-4.00e-01,
410,1.22e-01,-4.00e-01,
411,1.22e-01,-4.00e-01,
412,1.24e-01,-4.00e-01,
413,1.24e-01,-4.00e-01,
414,1.24e-01,-4.00e-01,
415,1.24e-01,-4.00e-01,
416,1.22e-01,-4.00e-01,
417,1.22e-01,-4.00e-01,
418,1.22e-01,-4.00e-01,
419,1.22e-01,-4.00e-01,
420,1.22e-01,-4.00e-01,
421,1.22e-01,-4.00e-01,
422,1.22e-01,-4.00e-01,
423,1.22e-01,-4.00e-01,
424,1.22e-01,-4.00e-01,
425,1.22e-01,-4.00e-01,
426,1.22e-01,-4.00e-01,
427,1.24e-01,-4.00e-01,
428,1.24e-01,-4.00e-01,
429,1.24e-01,-4.00e-01,
430,1.24e-01,-4.00e-01,
431,1.22e-01,-4.00e-01,
432,1.22e-01,-4.00e-01,
433,1.22e-01,-4.00e-01,
434,1.22e-01,-4.00e-01,
435,1.22e-01,-4.00e-01,
436,1.22e-01,-4.00e-01,
437,1.22e-01,-4.00e-01,
438,1.22e-01,-4.00e-01,
439,1.22e-01,-4.00e-01,
440,1.22e-01,-4.00e-01,
441,1.22e-01,-4.00e-01,
442,1.24e-01,-4.00e-01,
443,1.24e-01,-4.00e-01,
444,1.22e-01,-4.00e-01,
445,1.22e-01,-4.00e-01,
446,1.22e-01,-4.00e-01,
447,1.22e-01,-4.00e-01,
448,1.22e-01,-4.00e-01,
449,1.22e-01,-4.00e-01,
450,1.22e-01,-4.00e-01,
451,1.22e-01,-4.00e-01,
452,1.22e-01,-4.00e-01,
453,1.22e-01,-4.00e-01,
454,1.22e-01,-4.00e-01,
455,1.22e-01,-4.00e-01,
456,1.22e-01,-4.00e-01,
457,1.22e-01,-4.00e-01,
458,1.24e-01,-4.00e-01,
459,1.22e-01,-4.00e-01,
460,1.22e-01,-4.00e-01,
461,1.22e-01,-4.00e-01,
462,1.22e-01,-4.00e-01,
463,1.22e-01,-4.00e-01,
464,1.22e-01,-4.00e-01,
465,1.22e-01,-4.00e-01,
466,1.22e-01,-4.00e-01,
467,1.22e-01,-4.00e-01,
468,1.22e-01,-4.00e-01,
469,1.22e-01,-4.00e-01,
470,1.22e-01,-4.00e-01,
471,1.22e-01,-4.00e-01,
472,1.22e-01,-4.00e-01,
473,1.22e-01,-4.00e-01,
474,1.24e-01,-4.00e-01,
475,1.22e-01,-4.00e-01,
476,1.22e-01,-4.00e-01,
477,1.22e-01,-4.00e-01,
478,1.22e-01,-4.00e-01,
479,1.22e-01,-4.00e-01,
480,1.22e-01,-4.00e-01,
481,1.22e-01,-4.00e-01,
482,1.22e-01,-4.00e-01,
483,1.22e-01,-4.00e-01,
484,1.22e-01,-4.00e-01,
485,1.22e-01,-4.00e-01,
486,1.24e-01,-4.00e-01,
487,1.24e-01,-4.00e-01,
488,1.22e-01,-4.00e-01,
489,1.22e-01,-4.00e-01,
490,1.22e-01,-4.00e-01,
491,1.22e-01,-4.00e-01,
492,1.22e-01,-4.00e-01,
493,1.22e-01,-4.00e-01,
494,1.22e-01,-4.00e-01,
495,1.22e-01,-4.00e-01,
496,1.22e-01,-4.00e-01,
497,1.22e-01,-4.00e-01,
498,1.22e-01,-4.00e-01,
499,1.22e-01,-4.00e-01,
500,1.22e-01,-4.00e-01,
501,1.22e-01,-4.00e-01,
502,1.22e-01,-4.00e-01,
503,1.24e-01,-4.00e-01,
504,1.22e-01,-4.00e-01,
505,1.22e-01,-4.00e-01,
506,1.22e-01,-4.00e-01,
507,1.22e-01,-4.00e-01,
508,1.22e-01,-4.00e-01,
509,1.22e-01,-4.00e-01,
510,1.22e-01,-4.00e-01,
511,1.22e-01,-4.00e-01,
512,1.22e-01,-4.00e-01,
513,1.22e-01,-4.00e-01,
514,1.24e-01,-4.00e-01,
515,1.24e-01,-4.00e-01,
516,1.22e-01,-4.00e-01,
517,1.22e-01,-4.00e-01,
518,1.24e-01,-4.00e-01,
519,1.22e-01,-4.00e-01,
520,1.22e-01,-4.00e-01,
521,1.22e-01,-4.00e-01,
522,1.22e-01,-4.00e-01,
523,1.22e-01,-4.00e-01,
524,1.22e-01,-4.00e-01,
525,1.22e-01,-4.00e-01,
526,1.22e-01,-4.00e-01,
527,1.22e-01,-4.00e-01,
528,1.22e-01,-4.00e-01,
529,1.22e-01,-4.00e-01,
530,1.24e-01,-4.00e-01,
531,1.22e-01,-4.00e-01,
532,1.22e-01,-4.00e-01,
533,1.22e-01,-4.00e-01,
534,1.24e-01,-4.00e-01,
535,1.22e-01,-4.00e-01,
536,1.22e-01,-4.00e-01,
537,1.22e-01,-4.00e-01,
538,1.22e-01,-4.00e-01,
539,1.22e-01,-4.00e-01,
540,1.22e-01,-4.00e-01,
541,1.22e-01,-4.00e-01,
542,1.24e-01,-4.00e-01,
543,1.22e-01,-4.00e-01,
544,1.24e-01,-4.00e-01,
545,1.22e-01,-4.00e-01,
546,1.24e-01,-4.00e-01,
547,1.24e-01,-4.00e-01,
548,1.22e-01,-4.00e-01,
549,1.22e-01,-4.00e-01,
550,1.24e-01,-4.00e-01,
551,1.22e-01,-4.00e-01,
552,1.22e-01,-4.00e-01,
553,1.22e-01,-4.00e-01,
554,1.22e-01,-4.00e-01,
555,1.22e-01,-4.00e-01,
556,1.22e-01,-4.00e-01,
557,1.22e-01,-4.00e-01,
558,1.24e-01,-4.00e-01,
559,1.24e-01,-4.00e-01,
560,1.22e-01,-4.00e-01,
561,1.22e-01,-4.00e-01,
562,1.24e-01,-4.00e-01,
563,1.22e-01,-4.00e-01,
564,1.22e-01,-4.00e-01,
565,1.22e-01,-4.00e-01,
566,1.24e-01,-4.00e-01,
567,1.22e-01,-4.00e-01,
568,1.22e-01,-4.00e-01,
569,1.22e-01,-4.00e-01,
570,1.24e-01,-4.00e-01,
571,1.22e-01,-4.00e-01,
572,1.24e-01,-4.00e-01,
573,1.24e-01,-4.00e-01,
574,1.24e-01,-4.00e-01,
575,1.24e-01,-4.00e-01,
576,1.24e-01,-4.00e-01,
577,1.22e-01,-4.00e-01,
578,1.24e-01,-4.00e-01,
579,1.22e-01,-4.00e-01,
580,1.24e-01,-4.00e-01,
581,1.22e-01,-4.00e-01,
582,1.24e-01,-4.00e-01,
583,1.24e-01,-4.00e-01,
584,1.22e-01,-4.00e-01,
585,1.24e-01,-4.00e-01,
586,1.24e-01,-4.00e-01,
587,1.24e-01,-4.00e-01,
588,1.24e-01,-4.00e-01,
589,1.24e-01,-4.00e-01,
590,1.24e-01,-4.00e-01,
591,1.24e-01,-4.00e-01,
592,1.22e-01,-4.00e-01,
593,1.22e-01,-4.00e-01,
594,1.24e-01,-4.00e-01,
595,1.24e-01,-4.00e-01,
596,1.22e-01,-4.00e-01,
597,1.22e-01,-4.00e-01,
598,1.24e-01,-4.00e-01,
599,1.24e-01,-4.00e-01,
600,1.22e-01,-4.00e-01,
601,1.24e-01,-4.00e-01,
602,1.24e-01,-4.00e-01,
603,1.24e-01,-4.00e-01,
604,1.24e-01,-4.00e-01,
605,1.24e-01,-4.00e-01,
606,1.24e-01,-4.00e-01,
607,1.24e-01,-4.00e-01,
608,1.24e-01,-4.00e-01,
609,1.24e-01,-4.00e-01,
610,1.24e-01,-4.00e-01,
611,1.24e-01,-4.00e-01,
612,1.24e-01,-4.00e-01,
613,1.24e-01,-4.00e-01,
614,1.24e-01,-4.00e-01,
615,1.24e-01,-4.00e-01,
616,1.24e-01,-4.00e-01,
617,1.24e-01,-4.00e-01,
618,1.24e-01,-4.00e-01,
619,1.24e-01,-4.00e-01,
620,1.24e-01,-4.00e-01,
621,1.24e-01,-4.00e-01,
622,1.24e-01,-4.00e-01,
623,1.24e-01,-4.00e-01,
624,1.24e-01,-4.00e-01,
625,1.24e-01,-4.00e-01,
626,1.24e-01,-4.00e-01,
627,1.24e-01,-4.00e-01,
628,1.24e-01,-4.00e-01,
629,1.24e-01,-4.00e-01,
630,1.24e-01,-4.00e-01,
631,1.24e-01,-4.00e-01,
632,1.24e-01,-4.00e-01,
633,1.24e-01,-4.00e-01,
634,1.24e-01,-4.00e-01,
635,1.24e-01,-4.00e-01,
636,1.24e-01,-4.00e-01,
637,1.24e-01,-4.00e-01,
638,1.24e-01,-4.00e-01,
639,1.24e-01,-4.00e-01,
640,1.24e-01,-4.00e-01,
641,1.22e-01,-4.00e-01,
642,1.24e-01,-4.00e-01,
643,1.24e-01,-4.00e-01,
644,1.24e-01,-4.00e-01,
645,1.24e-01,-4.00e-01,
646,1.24e-01,-4.00e-01,
647,1.24e-01,-4.00e-01,
648,1.24e-01,-4.00e-01,
649,1.24e-01,-4.00e-01,
650,1.24e-01,-4.00e-01,
651,1.24e-01,-4.00e-01,
652,1.24e-01,-4.00e-01,
653,1.24e-01,-4.00e-01,
654,1.24e-01,-4.00e-01,
655,1.24e-01,-4.00e-01,
656,1.24e-01,-4.00e-01,
657,1.24e-01,-4.00e-01,
658,1.24e-01,-4.00e-01,
659,1.24e-01,-4.00e-01,
660,1.24e-01,-4.00e-01,
661,1.24e-01,-4.00e-01,
662,1.24e-01,-4.00e-01,
663,1.24e-01,-4.00e-01,
664,1.24e-01,-4.00e-01,
665,1.24e-01,-4.00e-01,
666,1.24e-01,-4.00e-01,
667,1.24e-01,-4.00e-01,
668,1.24e-01,-4.00e-01,
669,1.24e-01,-4.00e-01,
670,1.24e-01,-4.00e-01,
671,1.24e-01,-4.00e-01,
672,1.24e-01,-4.00e-01,
673,1.24e-01,-4.00e-01,
674,1.24e-01,-4.00e-01,
675,1.24e-01,-4.00e-01,
676,1.24e-01,-4.00e-01,
677,1.24e-01,-4.00e-01,
678,1.24e-01,-4.00e-01,
679,1.24e-01,-4.00e-01,
680,1.24e-01,-4.00e-01,
681,1.24e-01,-4.00e-01,
682,1.24e-01,-4.00e-01,
683,1.24e-01,-4.00e-01,
684,1.24e-01,-4.00e-01,
685,1.24e-01,-4.00e-01,
686,1.24e-01,-4.00e-01,
687,1.24e-01,-4.00e-01,
688,1.24e-01,-4.00e-01,
689,1.24e-01,-4.00e-01,
690,1.24e-01,-4.00e-01,
691,1.24e-01,-4.00e-01,
692,1.24e-01,-4.00e-01,
693,1.24e-01,-4.00e-01,
694,1.24e-01,-4.00e-01,
695,1.24e-01,-4.00e-01,
696,1.24e-01,-4.00e-01,
697,1.24e-01,-4.00e-01,
698,1.24e-01,-4.00e-01,
699,1.24e-01,-4.00e-01,
700,1.24e-01,-4.00e-01,
701,1.24e-01,-4.00e-01,
702,1.24e-01,-4.00e-01,
703,1.24e-01,-4.00e-01,
704,1.24e-01,-4.00e-01,
705,1.24e-01,-4.00e-01,
706,1.24e-01,-4.00e-01,
707,1.24e-01,-4.00e-01,
708,1.24e-01,-4.00e-01,
709,1.24e-01,-4.00e-01,
710,1.24e-01,-4.00e-01,
711,1.24e-01,-4.00e-01,
712,1.24e-01,-4.00e-01,
713,1.24e-01,-4.00e-01,
714,1.24e-01,-4.00e-01,
715,1.24e-01,-4.00e-01,
716,1.24e-01,-4.00e-01,
717,1.24e-01,-4.00e-01,
718,1.24e-01,-4.00e-01,
719,1.24e-01,-4.00e-01,
720,1.24e-01,-4.00e-01,
721,1.24e-01,-4.00e-01,
722,1.24e-01,-4.00e-01,
723,1.24e-01,-4.00e-01,
724,1.24e-01,-4.00e-01,
725,1.24e-01,-4.00e-01,
726,1.24e-01,-4.00e-01,
727,1.24e-01,-4.00e-01,
728,1.24e-01,-4.00e-01,
729,1.24e-01,-4.00e-01,
730,1.24e-01,-4.00e-01,
731,1.24e-01,-4.00e-01,
732,1.24e-01,-4.00e-01,
733,1.24e-01,-4.00e-01,
734,1.24e-01,-4.00e-01,
735,1.24e-01,-4.00e-01,
736,1.24e-01,-4.00e-01,
737,1.24e-01,-4.00e-01,
738,1.24e-01,-4.00e-01,
739,1.24e-01,-4.00e-01,
740,1.24e-01,-4.00e-01,
741,1.24e-01,-4.00e-01,
742,1.24e-01,-4.00e-01,
743,1.24e-01,-4.00e-01,
744,1.24e-01,-4.00e-01,
745,1.24e-01,-4.00e-01,
746,1.24e-01,-4.00e-01,
747,1.24e-01,-4.00e-01,
748,1.24e-01,-4.00e-01,
749,1.24e-01,-4.00e-01,
750,1.24e-01,-4.00e-01,
751,1.24e-01,-4.00e-01,
752,1.24e-01,-4.00e-01,
753,1.24e-01,-4.00e-01,
754,1.24e-01,-4.00e-01,
755,1.24e-01,-4.00e-01,
756,1.24e-01,-4.00e-01,
757,1.24e-01,-4.00e-01,
758,1.24e-01,-4.00e-01,
759,1.24e-01,-4.00e-01,
760,1.24e-01,-4.00e-01,
761,1.24e-01,-4.00e-01,
762,1.24e-01,-4.00e-01,
763,1.24e-01,-4.00e-01,
764,1.24e-01,-4.00e-01,
765,1.24e-01,-4.00e-01,
766,1.24e-01,-4.00e-01,
767,1.24e-01,-4.00e-01,
768,1.24e-01,-4.00e-01,
769,1.24e-01,-4.00e-01,
770,1.24e-01,-4.00e-01,
771,1.24e-01,-4.00e-01,
772,1.24e-01,-4.00e-01,
773,1.24e-01,-4.00e-01,
774,1.24e-01,-4.00e-01,
775,1.24e-01,-4.00e-01,
776,1.24e-01,-4.00e-01,
777,1.24e-01,-4.00e-01,
778,1.24e-01,-4.00e-01,
779,1.24e-01,-4.00e-01,
780,1.24e-01,-4.00e-01,
781,1.24e-01,-4.00e-01,
782,1.24e-01,-4.00e-01,
783,1.24e-01,-4.00e-01,
784,1.24e-01,-4.00e-01,
785,1.24e-01,-4.00e-01,
786,1.24e-01,-4.00e-01,
787,1.24e-01,-4.00e-01,
788,1.24e-01,-4.00e-01,
789,1.24e-01,-4.00e-01,
790,1.24e-01,-4.00e-01,
791,1.24e-01,-4.00e-01,
792,1.24e-01,-4.00e-01,
793,1.24e-01,-4.00e-01,
794,1.24e-01,-4.00e-01,
795,1.24e-01,-4.00e-01,
796,1.24e-01,-4.00e-01,
797,1.24e-01,-4.00e-01,
798,1.24e-01,-4.00e-01,
799,1.24e-01,-4.00e-01,
800,1.24e-01,-4.00e-01,
801,1.24e-01,-4.00e-01,
802,1.24e-01,-4.00e-01,
803,1.24e-01,-4.00e-01,
804,1.24e-01,-4.00e-01,
805,1.24e-01,-4.00e-01,
806,1.24e-01,-4.00e-01,
807,1.24e-01,-4.00e-01,
808,1.24e-01,-4.00e-01,
809,1.24e-01,-4.00e-01,
810,1.24e-01,-4.00e-01,
811,1.24e-01,-4.00e-01,
812,1.24e-01,-4.00e-01,
813,1.24e-01,-4.00e-01,
814,1.24e-01,-4.00e-01,
815,1.24e-01,-4.00e-01,
816,1.24e-01,-4.00e-01,
817,1.24e-01,-4.00e-01,
818,1.24e-01,-4.00e-01,
819,1.24e-01,-4.00e-01,
820,1.24e-01,-4.00e-01,
821,1.24e-01,-4.00e-01,
822,1.24e-01,-4.00e-01,
823,1.24e-01,-4.00e-01,
824,1.24e-01,-4.00e-01,
825,1.24e-01,-4.00e-01,
826,1.24e-01,-4.00e-01,
827,1.24e-01,-4.00e-01,
828,1.24e-01,-4.00e-01,
829,1.24e-01,-4.00e-01,
830,1.24e-01,-4.00e-01,
831,1.24e-01,-4.00e-01,
832,1.24e-01,-4.00e-01,
833,1.24e-01,-4.00e-01,
834,1.24e-01,-4.00e-01,
835,1.24e-01,-4.00e-01,
836,1.24e-01,-4.00e-01,
837,1.24e-01,-4.00e-01,
838,1.24e-01,-4.00e-01,
839,1.24e-01,-4.00e-01,
840,1.24e-01,-4.00e-01,
841,1.24e-01,-4.00e-01,
842,1.24e-01,-4.00e-01,
843,1.24e-01,-4.00e-01,
844,1.24e-01,-4.00e-01,
845,1.24e-01,-4.00e-01,
