reports/Lab_10/data/step_response.csv

#Digilent WaveForms Oscilloscope Acquisition
#Device Name: Discovery2
#Serial Number: DEMO
#Date Time: 2024-04-19 11:07:19.880
#Sample rate: 1.5873e+06Hz
#Samples: 8192
#Trigger: Source: Channel 1 Type: Edge Condition: Rising Level: 0 V Hyst.: Auto HoldOff: 100 ns
#Channel 1: Range: 1 V/div Offset: 0 V Sample Mode: Average
#Channel 2: Range: 1 V/div Offset: 9.7 V Sample Mode: Average
#Wavegen Channel 1: Disabled
#Mode: Simple
#Type: Square
#Frequency: 1 kHz
#Period: 1 ms
#Amplitude: 500 mV
#Offset: 0 V
#Symmetry: 50 %
#Phase: 0 °

Time (s),Channel 1 (V),Channel 2 (V)
-0.002580109615384615,0.4312139157554108,-9.22670750663206
-0.002579479615384616,0.4312139157554108,-9.317989160223542
-0.002578849615384615,0.4386372396637441,-9.394665749240463
-0.002578219615384615,0.4349255777095775,-9.460388539826383
-0.002577589615384616,0.4349255777095775,-9.515157531981272
-0.002576959615384615,0.4386372396637441,-9.555321459561542
-0.002576329615384616,0.4386372396637441,-9.588182854854477
-0.002575699615384616,0.4349255777095775,-9.599136653285473
-0.002575069615384615,0.4349255777095775,-9.602787919429135
-0.002574439615384616,0.4349255777095775,-9.599136653285475
-0.002573809615384615,0.4349255777095775,-9.58453158871083
-0.002573179615384615,0.4349255777095758,-9.551670193417863
-0.002572549615384616,0.4312139157554108,-9.511506265837612
-0.002571919615384615,0.4275022538012442,-9.464039805970019
-0.002571289615384615,0.4312139157554125,-9.409270813815084
-0.002570659615384616,0.4349255777095775,-9.361804353947514
-0.002570029615384615,0.4349255777095775,-9.314337894079923
-0.002569399615384616,0.4349255777095775,-9.248615103494057
-0.002568769615384615,0.4312139157554108,-9.204799909770095
-0.002568139615384615,0.4349255777095775,-9.160984716046144
-0.002567509615384616,0.4349255777095775,-9.113518256178573
-0.002566879615384615,0.4275022538012442,-9.069703062454643
-0.002566249615384615,0.4312139157554074,-9.029539134874355
-0.002565619615384616,0.4237905918470776,-8.989375207294103
-0.002564989615384615,0.4349255777095775,-8.945560013570171
-0.002564359615384616,0.4386372396637424,-8.905396085989919
-0.002563729615384615,0.4386372396637441,-8.865232158409631
-0.002563099615384615,0.4349255777095775,-8.825068230829388
-0.002562469615384616,0.4349255777095775,-8.883488489127936
-0.002561839615384615,0.4312139157554108,-8.967467610432136
-0.002561209615384615,0.4237905918470792,-9.084308127029333
-0.002560579615384616,0.4275022538012442,-9.190194845195451
-0.002559949615384615,0.4349255777095775,-9.281476498786974
-0.002559319615384616,0.4312139157554125,-9.365455620091137
-0.002558689615384616,0.4386372396637441,-9.434829676820732
-0.002558059615384615,0.4349255777095775,-9.493249935119307
-0.002557429615384616,0.4312139157554108,-9.537065128843238
-0.002556799615384615,0.4312139157554108,-9.566275257992524
-0.002556169615384615,0.4312139157554125,-9.588182854854498
-0.002555539615384616,0.4349255777095775,-9.602787919429135
-0.002554909615384615,0.4275022538012442,-9.602787919429135
-0.002554279615384616,0.4275022538012442,-9.591834120998156
-0.002553649615384616,0.4275022538012442,-9.566275257992524
-0.002553019615384615,0.4312139157554108,-9.529762596555916
-0.002552389615384616,0.4349255777095775,-9.485947402831986
-0.002551759615384615,0.4349255777095775,-9.438480942964393
-0.002551129615384615,0.4386372396637424,-9.372758152378484
-0.002550499615384616,0.4349255777095775,-9.343548023229209
-0.002549869615384615,0.4349255777095775,-9.274173966499653
-0.002549239615384616,0.4386372396637424,-9.219404974344764
-0.002548609615384616,0.4386372396637441,-9.175589780620808
-0.002547979615384615,0.4386372396637441,-9.135425853040537
-0.002547349615384616,0.4349255777095791,-9.091610659316627
-0.002546719615384615,0.4349255777095775,-9.044144199449015
-0.002546089615384615,0.4349255777095791,-9.003980271868727
-0.002545459615384616,0.4386372396637441,-8.960165078144815
-0.002544829615384615,0.4386372396637441,-8.916349884420883
-0.002544199615384616,0.4349255777095791,-8.879837222984291
-0.002543569615384616,0.4312139157554108,-8.843324561547666
-0.002542939615384615,0.4312139157554108,-8.854278359978649
-0.002542309615384616,0.4312139157554108,-8.934606215139151
-0.002541679615384615,0.4275022538012442,-9.044144199449015
-0.002541049615384615,0.423790591847081,-9.150030917615226
-0.002540419615384616,0.4312139157554108,-9.248615103494027
-0.002539789615384615,0.4312139157554108,-9.336245490941888
-0.002539159615384616,0.4275022538012458,-9.412922079958731
-0.002538529615384616,0.4275022538012442,-9.474993604401002
-0.002537899615384615,0.4349255777095775,-9.522460064268595
-0.002537269615384616,0.4312139157554125,-9.562623991848847
-0.002536639615384615,0.4275022538012442,-9.588182854854491
-0.002536009615384615,0.423790591847081,-9.595485387141814
-0.002535379615384616,0.4312139157554108,-9.599136653285473
-0.002534749615384615,0.4275022538012442,-9.591834120998151
-0.002534119615384615,0.4312139157554108,-9.580880322567156
-0.002533489615384616,0.4312139157554108,-9.55167019341788
-0.002532859615384615,0.4275022538012442,-9.511506265837612
-0.002532229615384616,0.4275022538012442,-9.464039805970041
-0.002531599615384615,0.4312139157554108,-9.401968281527784
-0.002530969615384615,0.4349255777095775,-9.358153087803828
-0.002530339615384616,0.4349255777095775,-9.303384095648941
-0.002529709615384615,0.4349255777095775,-9.244963837350365
-0.002529079615384615,0.4349255777095791,-9.197497377482756
-0.002528449615384616,0.4386372396637441,-9.157333449902504
-0.002527819615384615,0.4386372396637441,-9.109866990034911
-0.002527189615384616,0.4349255777095791,-9.058749264023682
-0.002526559615384615,0.4386372396637441,-9.018585336443389
-0.002525929615384615,0.4386372396637441,-8.97842140886312
-0.002525299615384616,0.4349255777095775,-8.934606215139189
-0.002524669615384615,0.4386372396637441,-8.890791021415257
-0.002524039615384615,0.4386372396637424,-8.850627093834976
-0.002523409615384616,0.4349255777095775,-8.828719496973022
-0.002522779615384615,0.4275022538012442,-8.89809355370258
-0.002522149615384616,0.4312139157554091,-9.003980271868699
-0.002521519615384616,0.4312139157554108,-9.120820788465895
-0.002520889615384615,0.4312139157554108,-9.2230562404884
-0.002520259615384616,0.4349255777095775,-9.314337894079923
-0.002519629615384615,0.4349255777095775,-9.383711950809479
-0.002518999615384615,0.4349255777095791,-9.4494347413954
-0.002518369615384616,0.4386372396637441,-9.504203733550289
-0.002517739615384615,0.4312139157554108,-9.548018927274221
-0.002517109615384616,0.4312139157554108,-9.577229056423496
-0.002516479615384616,0.4349255777095775,-9.599136653285473
-0.002515849615384615,0.4312139157554108,-9.606439185572794
-0.002515219615384616,0.4312139157554108,-9.599136653285477
-0.002514589615384615,0.4349255777095775,-9.58453158871083
-0.002513959615384615,0.4312139157554091,-9.555321459561529
-0.002513329615384616,0.4275022538012442,-9.526111330412254
-0.002512699615384615,0.4312139157554108,-9.478644870544663
-0.002512069615384616,0.4312139157554108,-9.427527144533434
-0.002511439615384616,0.4312139157554108,-9.369106886234835
-0.002510809615384615,0.4349255777095775,-9.336245490941888
-0.002510179615384616,0.4312139157554125,-9.263220168068704
-0.002509549615384615,0.4312139157554108,-9.215753708201078
-0.002508919615384615,0.4386372396637457,-9.168287248333467
-0.002508289615384616,0.4423489016179107,-9.124472054609555
-0.002507659615384615,0.4349255777095775,-9.084308127029285
-0.002507029615384616,0.4312139157554125,-9.044144199449033
-0.002506399615384616,0.4349255777095775,-8.996677739581424
-0.002505769615384615,0.4349255777095775,-8.956513812001154
-0.002505139615384616,0.4386372396637424,-8.912698618277243
-0.002504509615384615,0.4386372396637441,-8.876185956840613
-0.002503879615384615,0.4312139157554125,-8.8323707631167
-0.002503249615384616,0.4349255777095775,-8.868883424553292
-0.002502619615384615,0.4275022538012442,-8.956513812001154
-0.002501989615384615,0.4275022538012458,-9.077005594742014
-0.002501359615384616,0.4312139157554108,-9.18654357905179
-0.002500729615384615,0.4312139157554108,-9.281476498786974
-0.002500099615384616,-0.1329587012776603,-9.361804353947477
-0.002499469615384615,-0.5152598825570797,-9.431178410677072
-0.002498839615384615,-0.5301065303737461,-9.489598668975667
-0.002498209615384616,-0.5301065303737461,-9.537065128843238
-0.002497579615384615,-0.5301065303737461,-9.569926524136186
-0.002496949615384615,-0.5301065303737478,-9.595485387141819
-0.002496319615384616,-0.5338181923279127,-9.610090451716456
-0.002495689615384615,-0.5338181923279127,-9.613741717860117
-0.002495059615384616,-0.5338181923279127,-9.606439185572798
-0.002494429615384615,-0.5301065303737461,-9.577229056423509
-0.002493799615384615,-0.5301065303737444,-9.544367661130538
-0.002493169615384616,-0.5263948684195795,-9.496901201262968
-0.002492539615384615,-0.5375298542820794,-9.453086007539037
-0.002491909615384615,-0.5338181923279127,-9.387363216953126
-0.002491279615384616,-0.5338181923279127,-9.354501821660193
-0.002490649615384615,-0.5301065303737461,-9.292430297217956
-0.002490019615384616,-0.5263948684195812,-9.23401003891941
-0.002489389615384615,-0.5263948684195795,-9.18654357905179
-0.002488759615384615,-0.5226832064654129,-9.14272838532786
-0.002488129615384616,-0.5263948684195795,-9.098913191603929
-0.002487499615384615,-0.5301065303737461,-9.058749264023659
-0.002486869615384615,-0.5263948684195762,-9.018585336443371
-0.002486239615384616,-0.5189715445112463,-8.97842140886312
-0.002485609615384615,-0.5189715445112463,-8.934606215139189
-0.002484979615384616,-0.5189715445112463,-8.890791021415277
-0.002484349615384616,-0.5189715445112463,-8.850627093834987
-0.002483719615384615,-0.5226832064654129,-8.814114432398378
-0.002483089615384616,-0.5226832064654129,-8.766647972530787
-0.002482459615384615,-0.5189715445112463,-8.832370763116684
-0.002481829615384615,-0.5226832064654146,-8.941908747426574
-0.002481199615384616,-0.5263948684195795,-9.084308127029285
-0.002480569615384615,-0.5226832064654129,-9.212102442057418
-0.002479939615384616,-0.5226832064654129,-9.332594224798171
-0.002479309615384616,-0.5226832064654129,-9.438480942964393
-0.002478679615384615,-0.5189715445112463,-9.526111330412254
-0.002478049615384616,-0.5226832064654112,-9.602787919429099
-0.002477419615384615,-0.5226832064654129,-9.672161976158691
-0.002476789615384615,-0.5263948684195778,-9.730582234457282
-0.002476159615384616,-0.5226832064654129,-9.767094895893875
-0.002475529615384615,-0.5226832064654129,-9.799956291186822
-0.002474899615384616,-0.5226832064654129,-9.818212621905118
-0.002474269615384616,-0.5263948684195795,-9.82916642033611
-0.002473639615384615,-0.5263948684195795,-9.82916642033611
-0.002473009615384616,-0.5226832064654146,-9.810910089617815
-0.002472379615384615,-0.5301065303737461,-9.78535122661218
-0.002471749615384615,-0.5263948684195778,-9.748838565175545
-0.002471119615384616,-0.5226832064654129,-9.694069573020657
-0.002470489615384615,-0.5226832064654129,-9.613741717860117
-0.002469859615384616,-0.5226832064654129,-9.558972725705228
-0.002469229615384616,-0.5152598825570797,-9.518808798124933
-0.002468599615384615,-0.5152598825570797,-9.471342338257342
-0.002467969615384616,-0.5189715445112446,-9.420224612246113
-0.002467339615384615,-0.5226832064654129,-9.380060684665819
-0.002466709615384615,-0.5226832064654112,-9.336245490941867
-0.002466079615384616,-0.5189715445112463,-9.288779031074297
-0.002465449615384615,-0.5226832064654129,-9.244963837350365
-0.002464819615384615,-0.5226832064654129,-9.197497377482758
-0.002464189615384616,-0.5226832064654129,-9.160984716046165
-0.002463559615384615,-0.5226832064654129,-9.117169522322234
-0.002462929615384616,-0.5263948684195778,-9.135425853040529
-0.002462299615384615,-0.5226832064654129,-9.230358772775721
-0.002461669615384615,-0.5189715445112463,-9.376409418522224
-0.002461039615384616,-0.5189715445112463,-9.522460064268595
-0.002460409615384615,-0.5189715445112463,-9.646603113153065
-0.002459779615384615,-0.5226832064654129,-9.759792363606598
-0.002459149615384616,-0.5226832064654129,-9.858376549485397
-0.002458519615384615,-0.5226832064654129,-9.946006936933259
-0.002457889615384616,-0.5226832064654129,-10.01172972751912
-0.002457259615384615,-0.5189715445112463,-10.07380125196139
-0.002456629615384615,-0.5189715445112463,-10.11761644568532
-0.002455999615384616,-0.5152598825570797,-10.15047784097827
-0.002455369615384615,-0.5152598825570797,-10.17238543784024
-0.002454739615384615,-0.5152598825570813,-10.18699050241488
-0.002454109615384616,-0.5189715445112463,-10.19064176855854
-0.002453479615384615,-0.5189715445112463,-10.17238543784024
-0.002452849615384616,-0.5189715445112463,-10.1395240425473
-0.002452219615384616,-0.5189715445112463,-10.10666264725434
-0.002451589615384615,-0.5152598825570797,-10.06284745353041
-0.002450959615384616,-0.5115482206029131,-9.978868332226208
-0.002450329615384615,-0.5115482206029131,-9.924099340071294
-0.002449699615384615,-0.5115482206029131,-9.872981614060018
-0.002449069615384616,-0.5115482206029131,-9.821863888048789
-0.002448439615384615,-0.5115482206029131,-9.770746162037536
-0.002447809615384616,-0.5189715445112429,-9.730582234457284
-0.002447179615384616,-0.5226832064654129,-9.690418306876996
-0.002446549615384615,-0.5115482206029131,-9.635649314722082
-0.002445919615384616,-0.5115482206029131,-9.580880322567193
-0.002445289615384615,-0.5078365586487463,-9.537065128843238
-0.002444659615384615,-0.5115482206029131,-9.489598668975624
-0.002444029615384616,-0.5115482206029131,-9.442132209108054
-0.002443399615384615,-0.5152598825570797,-9.401968281527784
-0.002442769615384616,-0.5115482206029147,-9.474993604400968
-0.002442139615384616,-0.5115482206029131,-9.591834120998151
-0.002441509615384615,-0.5115482206029131,-9.737884766744587
-0.002440879615384616,-0.5189715445112429,-9.872981614059979
-0.002440249615384615,-0.5189715445112463,-9.98982213065719
-0.002439619615384615,-0.515259882557078,-10.09936011496706
-0.002438989615384616,-0.5115482206029131,-10.1942930347022
-0.002438359615384615,-0.5078365586487463,-10.27096962371908
-0.002437729615384616,-0.5078365586487463,-10.33304114816129
-0.002437099615384616,-0.5189715445112463,-10.39146140645989
-0.002436469615384615,-0.5152598825570797,-10.4279740678965
-0.002435839615384616,-0.5189715445112446,-10.45353293090211
-0.002435209615384615,-0.5152598825570797,-10.46083546318945
-0.002434579615384615,-0.5152598825570797,-10.4644867293331
-0.002433949615384616,-0.5152598825570797,-10.44988166475846
-0.002433319615384615,-0.5115482206029131,-10.42432280175284
-0.002432689615384615,-0.5078365586487463,-10.38781014031621
-0.002432059615384616,-0.5078365586487463,-10.3439949465923
-0.002431429615384615,-0.5078365586487463,-10.27462088986274
-0.002430799615384616,-0.5115482206029114,-10.20159556698956
-0.002430169615384615,-0.5115482206029131,-10.14682657483461
-0.002429539615384615,-0.5115482206029131,-10.09936011496699
-0.002428909615384616,-0.5115482206029131,-10.0445911228121
-0.002428279615384615,-0.5115482206029131,-9.997124662944511
-0.002427649615384615,-0.5115482206029131,-9.949658203076895
-0.002427019615384616,-0.5115482206029131,-9.894889210922006
-0.002426389615384615,-0.5078365586487463,-9.843771484910754
-0.002425759615384616,-0.5041248966945814,-9.799956291186842
-0.002425129615384615,-0.5115482206029131,-9.74883856517557
-0.002424499615384615,-0.5115482206029114,-9.705023371451619
-0.002423869615384616,-0.5078365586487463,-9.657556911584047
-0.002423239615384615,-0.5115482206029131,-9.668510710015031
-0.002422609615384615,-0.5115482206029147,-9.774397428181258
-0.002421979615384616,-0.5152598825570797,-9.90949427549665
-0.002421349615384615,-0.5189715445112463,-10.05189365509943
-0.002420719615384616,-0.5115482206029164,-10.17238543784018
-0.002420089615384615,-0.5152598825570797,-10.2782721560064
-0.002419459615384615,-0.5115482206029131,-10.37320507574158
-0.002418829615384616,-0.5152598825570797,-10.45718419704579
-0.002418199615384615,-0.5115482206029131,-10.52290698763168
-0.002417569615384615,-0.5115482206029131,-10.57767597978661
-0.002416939615384616,-0.5115482206029131,-10.61783990736687
-0.002416309615384615,-0.5115482206029131,-10.64705003651615
-0.002415679615384616,-0.5115482206029131,-10.65800383494713
-0.002415049615384616,-0.5152598825570797,-10.65435256880347
-0.002414419615384615,-0.5078365586487463,-10.64339877037249
-0.002413789615384616,-0.5115482206029131,-10.6141886412232
-0.002413159615384615,-0.5078365586487463,-10.58497851207392
-0.002412529615384615,-0.5078365586487463,-10.53386078606264
-0.002411899615384616,-0.5078365586487463,-10.47544052776409
-0.002411269615384615,-0.5078365586487463,-10.38415887417257
-0.002410639615384616,-0.5078365586487463,-10.33304114816134
-0.002410009615384616,-0.5041248966945797,-10.2782721560064
-0.002409379615384615,-0.5078365586487463,-10.22350316385149
-0.002408749615384616,-0.5041248966945814,-10.1687341716966
-0.002408119615384615,-0.5041248966945797,-10.11761644568532
-0.002407489615384615,-0.5041248966945797,-10.06284745353039
-0.002406859615384616,-0.5041248966945797,-10.02268352595014
-0.002406229615384615,-0.5041248966945797,-9.982519598369867
-0.002405599615384616,-0.5004132347404148,-9.92409934007132
-0.002404969615384616,-0.5041248966945797,-9.876632880203703
-0.002404339615384615,-0.5078365586487463,-9.82916642033611
-0.002403709615384616,-0.5041248966945814,-9.792653758899517
-0.002403079615384615,-0.5078365586487463,-9.880284146347362
-0.002402449615384615,-0.5041248966945814,-10.00077592908824
-0.002401819615384616,-0.5078365586487463,-10.13952404254729
-0.002401189615384615,-0.5152598825570797,-10.26366709143176
-0.002400559615384616,-0.5189715445112446,-10.37320507574153
-0.002399929615384616,-0.5152598825570797,-10.46813799547677
-0.002399299615384615,-0.5152598825570797,-10.54846585063731
-0.002398669615384616,-0.5115482206029147,-10.61053737507951
-0.002398039615384615,-0.5115482206029131,-10.66895763337812
-0.002397409615384615,-0.5152598825570797,-10.7091215609584
-0.002396779615384616,-0.5152598825570797,-10.73833169010767
-0.002396149615384615,-0.5152598825570797,-10.76023928696964
-0.002395519615384615,-0.5078365586487447,-10.76023928696963
-0.002394889615384616,-0.5041248966945797,-10.745634222395
-0.002394259615384615,-0.5115482206029131,-10.72007535938937
-0.002393629615384616,-0.5115482206029131,-10.67991143180912
-0.002392999615384615,-0.5115482206029131,-10.62514243965419
-0.002392369615384615,-0.5115482206029114,-10.57037344749924
-0.002391739615384616,-0.5078365586487463,-10.49369685848239
-0.002391109615384615,-0.5041248966945797,-10.43162533404016
-0.002390479615384615,-0.507836558648748,-10.37320507574156
-0.002389849615384616,-0.5115482206029131,-10.31843608358667
-0.002389219615384615,-0.5115482206029131,-10.27096962371908
-0.002388589615384616,-0.5115482206029131,-10.21620063156419
-0.002387959615384615,-0.5078365586487463,-10.16508290555291
-0.002387329615384615,-0.507836558648748,-10.1176164456853
-0.002386699615384616,-0.5115482206029131,-10.07014998581773
-0.002386069615384615,-0.5078365586487463,-10.01903225980648
-0.002385439615384615,-0.5078365586487447,-9.971565799938862
-0.002384809615384616,-0.5041248966945797,-9.920448073927632
-0.002384179615384615,-0.5041248966945797,-9.872981614060041
-0.002383549615384616,-0.5078365586487447,-9.909494275496634
-0.002382919615384615,-0.5078365586487463,-10.02268352595014
-0.002382289615384615,-0.5078365586487463,-10.16143163940925
-0.002381659615384616,-0.5078365586487463,-10.28557468829372
-0.002381029615384615,-0.5078365586487463,-10.39511267260355
-0.002380399615384615,-0.504124896694583,-10.49734812462609
-0.002379769615384616,-0.5115482206029131,-10.57402471364293
-0.002379139615384615,-0.5115482206029131,-10.64705003651615
-0.002378509615384616,-0.507836558648748,-10.70912156095836
